<?xml version="1.0" encoding="UTF-8" standalone="no"?>
<svg
   xmlns:svg="http://www.w3.org/2000/svg"
   xmlns="http://www.w3.org/2000/svg"
   version="1.1"
   viewBox="0 0 36.844 20.125"
   height="20.125"
   width="36.844"
   data-name="Группа 1"
   id="Группа_1">
  <defs
     id="defs5098">
    <style
       id="style5085">
      .cls-1 {
        fill: #c700ff75;
      }

      .cls-1, .cls-5 {
        fill-rule: evenodd;
      }

      .cls-2 {
        filter: url(#filter);
      }

      .cls-3, .cls-4, .cls-5 {
        fill: none;
        stroke-width: 1px;
      }

      .cls-3, .cls-5 {
        stroke: #000;
      }

      .cls-4 {
        stroke: #111313;
      }
    </style>
    <filter
       filterUnits="userSpaceOnUse"
       id="filter">
      <feOffset
         id="feOffset5087"
         in="SourceAlpha"
         dy="0.545"
         dx="-0.839"
         result="offset" />
      <feGaussianBlur
         id="feGaussianBlur5089"
         result="blur" />
      <feFlood
         id="feFlood5091"
         flood-opacity="0.21"
         result="flood" />
      <feComposite
         id="feComposite5093"
         in2="blur"
         operator="in"
         result="composite" />
      <feBlend
         id="feBlend5095"
         in2="composite"
         in="SourceGraphic"
         result="blend" />
    </filter>
  </defs>
  <path
     id="path5100"
     transform="translate(0 -0.375)"
     d="M3.841,2h33L33,19H0Z"
     class="cls-1" />
  <g
     class="cls-2"
     data-name="1"
     id="_1">
    <path
       id="rect5102"
       d="M 28.494141,-0.11523438 28.011719,0.015625 10.142578,4.8046875 10.763672,7.125 H 7.5 v 13 h 19 v -6.244141 l 5.359375,-1.4375 z M 27.787109,1.109375 30.632812,11.736328 26.5,12.845703 V 7.125 h -2.365234 c -0.03295,-0.017792 -0.146019,-0.077979 -0.146485,-0.078125 -7e-6,-2.4e-6 -0.0038,5.1e-6 -0.0039,0 C 23.382061,5.9261927 22.299734,5.1259772 21,5.125 c -1.299004,0.00182 -2.380527,0.8017433 -2.982422,1.921875 -1.16e-4,5.1e-6 -0.0039,-2.4e-6 -0.0039,0 -4.66e-4,1.457e-4 -0.113598,0.060367 -0.146484,0.078125 H 11.796875 L 11.365234,5.5117188 Z M 21,6.125 c 0.768048,5.774e-4 1.386618,0.4275138 1.851562,1 H 19.150391 C 19.614991,6.5530283 20.232616,6.1260757 21,6.125 Z m -12.5,2 h 2.53125 0.382812 7.144532 4.884765 H 25.5 v 5.371094 0.652344 4.976562 h -17 z"
       style="color:#000000;font-style:normal;font-variant:normal;font-weight:normal;font-stretch:normal;font-size:medium;line-height:normal;font-family:sans-serif;font-variant-ligatures:normal;font-variant-position:normal;font-variant-caps:normal;font-variant-numeric:normal;font-variant-alternates:normal;font-feature-settings:normal;text-indent:0;text-align:start;text-decoration:none;text-decoration-line:none;text-decoration-style:solid;text-decoration-color:#000000;letter-spacing:normal;word-spacing:normal;text-transform:none;writing-mode:lr-tb;direction:ltr;text-orientation:mixed;dominant-baseline:auto;baseline-shift:baseline;text-anchor:start;white-space:normal;shape-padding:0;clip-rule:nonzero;display:inline;overflow:visible;visibility:visible;opacity:1;isolation:auto;mix-blend-mode:normal;color-interpolation:sRGB;color-interpolation-filters:linearRGB;solid-color:#000000;solid-opacity:1;vector-effect:none;fill-opacity:1;fill-rule:nonzero;stroke:none;stroke-width:1;stroke-linecap:butt;stroke-linejoin:miter;stroke-miterlimit:4;stroke-dasharray:none;stroke-dashoffset:0;stroke-opacity:1;color-rendering:auto;image-rendering:auto;shape-rendering:auto;text-rendering:auto;enable-background:accumulate" />
    <path
       id="circle5104"
       d="m 17,10.125 c -1.927074,0 -3.5,1.572926 -3.5,3.5 0,1.927074 1.572926,3.5 3.5,3.5 1.927074,0 3.5,-1.572926 3.5,-3.5 0,-1.927074 -1.572926,-3.5 -3.5,-3.5 z m 0,1 c 1.386634,0 2.5,1.113366 2.5,2.5 0,1.386634 -1.113366,2.5 -2.5,2.5 -1.386634,0 -2.5,-1.113366 -2.5,-2.5 0,-1.386634 1.113366,-2.5 2.5,-2.5 z"
       style="color:#000000;font-style:normal;font-variant:normal;font-weight:normal;font-stretch:normal;font-size:medium;line-height:normal;font-family:sans-serif;font-variant-ligatures:normal;font-variant-position:normal;font-variant-caps:normal;font-variant-numeric:normal;font-variant-alternates:normal;font-feature-settings:normal;text-indent:0;text-align:start;text-decoration:none;text-decoration-line:none;text-decoration-style:solid;text-decoration-color:#000000;letter-spacing:normal;word-spacing:normal;text-transform:none;writing-mode:lr-tb;direction:ltr;text-orientation:mixed;dominant-baseline:auto;baseline-shift:baseline;text-anchor:start;white-space:normal;shape-padding:0;clip-rule:nonzero;display:inline;overflow:visible;visibility:visible;opacity:1;isolation:auto;mix-blend-mode:normal;color-interpolation:sRGB;color-interpolation-filters:linearRGB;solid-color:#000000;solid-opacity:1;vector-effect:none;fill:#111313;fill-opacity:1;fill-rule:nonzero;stroke:none;stroke-width:1px;stroke-linecap:butt;stroke-linejoin:miter;stroke-miterlimit:4;stroke-dasharray:none;stroke-dashoffset:0;stroke-opacity:1;color-rendering:auto;image-rendering:auto;shape-rendering:auto;text-rendering:auto;enable-background:accumulate" />
    <g
       id="g5108" />
  </g>
</svg>
