<svg 
 xmlns="http://www.w3.org/2000/svg"
 xmlns:xlink="http://www.w3.org/1999/xlink"
 width="15px" height="12px">
<path fill-rule="evenodd"  fill="rgb(234, 61, 88)"
 d="M-0.000,8.000 L15.000,8.000 L15.000,12.000 L-0.000,12.000 L-0.000,8.000 Z"/>
<path fill-rule="evenodd"  fill="rgb(45, 110, 181)"
 d="M-0.000,4.000 L15.000,4.000 L15.000,8.000 L-0.000,8.000 L-0.000,4.000 Z"/>
<path fill-rule="evenodd"  fill="rgb(242, 242, 242)"
 d="M-0.000,0.000 L15.000,0.000 L15.000,4.000 L-0.000,4.000 L-0.000,0.000 Z"/>
</svg>